{
    "/js/app.js": "/js/app.js",
    "/js/default.js": "/js/default.js",
    "/js/admins.js": "/js/admins.js",
    "/js/city.js": "/js/city.js",
    "/js/company.js": "/js/company.js",
    "/js/toaster.js": "/js/toaster.js",
    "/js/users.js": "/js/users.js",
    "/js/order.js": "/js/order.js",
    "/js/category.js": "/js/category.js",
    "/js/contacts.js": "/js/contacts.js",
    "/js/shift.js": "/js/shift.js",
    "/js/frontend/booking.js": "/js/frontend/booking.js",
    "/js/bootstrap.js": "/js/bootstrap.js",
    "/css/default.css": "/css/default.css",
    "/css/app.css": "/css/app.css",
    "/assets/assets/css/style.css": "/assets/assets/css/style.css"
}
